000     @SCRATCH
001     @SCRATCH
001     _RETURN_
002     @SCRATCH
003     @SCRATCH
004     @SCRATCH
005-008 v
009-00C l
00D-00E @ITOF.P1
00D-010 @PRINTF_L32D_9600_31766_31767FPFPF.P2
00D     main.@SCRATCH1
00E     @delay_ms1.P1
011     @PRINTF_L32D_9600_31766_31767FPFPF.P1
012     @PRINTF_L32D_9600_31766_31767FPFPF.@SCRATCH1
013     @PRINTF_L32D_9600_31766_31767FPFPF.@SCRATCH2
014     @PRINTF_L32D_9600_31766_31767FPFPF.@SCRATCH3
015     @PRINTF_L32D_9600_31766_31767FPFPF.@SCRATCH4
016     @PRINTF_L32D_9600_31766_31767FPFPF.@SCRATCH5
017     @PRINTF_L32D_9600_31766_31767FPFPF.@SCRATCH6
018     @PRINTF_L32D_9600_31766_31767FPFPF.@SCRATCH7
019     @PRINTF_L32D_9600_31766_31767FPFPF.@SCRATCH8
01A-01D @FTOSD.P1
01A-01D @MULFF.P2
01A-01D @DIV3232.P3
01E-021 @MULFF.P1
01E-021 @DIV3232.P2
01E     @FTOSD.@SCRATCH1
022     @MULFF.@SCRATCH1
022     @DIV3232.@SCRATCH1
023     @MULFF.@SCRATCH2
023     @DIV3232.@SCRATCH2
024     @MULFF.@SCRATCH3
024     @DIV3232.@SCRATCH3
025     @DIV3232.@SCRATCH4
026     @DIV3232.@SCRATCH5
FB4.6   C1OUT
FB4.7   C2OUT
FBB-FBC CCP_2
FBB     CCP_2_LOW
FBC     CCP_2_HIGH
FBE-FBF CCP_1
FBE     CCP_1_LOW
FBF     CCP_1_HIGH
FE9-FEA @READ_PROGRAM_MEMORY.P1
FE9-FEA @WRITE_PROGRAM_MEMORY.P2
FF6-FF8 @READ_PROGRAM_MEMORY.P1
FF6-FF8 @WRITE_PROGRAM_MEMORY.P2

ROM Allocation:
001C  @delay_ms1
03AE  main
0046  @ITOF
007C  @MULFF
0004  @const68
016E  @FTOSD
01AE  @DIV3232
0228  @PRINTF_L32D_9600_31766_31767FPFPF
03AE  @cinit

Project Directory:
    H:\Eletrônica\PIC\

Project Files:
    Exemplo4.c
    Exemplo4.h
    C:\Program Files (x86)\PICC\devices\18F2550.h

Units:
    H:\Eletrônica\PIC\Exemplo4.c (main)

Compiler Settings:
    Processor:      PIC18F2550
    Pointer Size:   16
    ADC Range:      0-1023
    Opt Level:      9
    Short,Int,Long: UNSIGNED: 1,8,16
    Float,Double:   32,32

Output Files:
    Errors:      Exemplo4.err
    Ext Symbols: Exemplo4.esym
    INHX32:      Exemplo4.hex
    Symbols:     Exemplo4.sym
    List:        Exemplo4.lst
    Debug/COFF:  Exemplo4.cof
    Project:     Exemplo4.PJT
    Call Tree:   Exemplo4.tre
    Statistics:  Exemplo4.sta
