004-005 @READ_PROGRAM_MEMORY8.P1
015-016 CCP_1
015     CCP_1_LOW
016     CCP_1_HIGH
01F.6   C1OUT
01F.7   C2OUT
021     main.@SCRATCH1
022     @delay_ms1.P1
077     @SCRATCH
078     @SCRATCH
078     _RETURN_
079     @SCRATCH
07A     @SCRATCH
07B     @SCRATCH
10D-10E @READ_PROGRAM_MEMORY8.P1

ROM Allocation:
0004  @delay_ms1
0011  main
0011  @cinit

Project Directory:
    H:\Eletrônica\PIC\

Project Files:
    Leds Piscando.c
    Leds Piscando.h
    C:\Program Files (x86)\PICC\devices\16F628A.h

Units:
    H:\Eletrônica\PIC\Leds Piscando.c (main)

Compiler Settings:
    Processor:      PIC16F628A
    Pointer Size:   16
    Opt Level:      9
    Short,Int,Long: UNSIGNED: 1,8,16
    Float,Double:   32,32

Output Files:
    Errors:      Leds Piscando.err
    Ext Symbols: Leds Piscando.esym
    INHX8:       Leds Piscando.hex
    Symbols:     Leds Piscando.sym
    List:        Leds Piscando.lst
    Debug/COFF:  Leds Piscando.cof
    Project:     Leds Piscando.PJT
    Call Tree:   Leds Piscando.tre
    Statistics:  Leds Piscando.sta
