*** Error 18 "Code.c" Line 1(9,72): File can not be opened
    Not in local "H:\Eletrônica - Programação\PIC\LCD Aula Ezequiel.h"
*** Error 128 "C:\Program Files (x86)\PICC\drivers\_LCD.c" Line 63(1,12): A #DEVICE required before this line
*** "C:\Program Files (x86)\PICC\drivers\_LCD.c" Line 65: Error #34: Unknown type
      3 Errors,  0 Warnings.
