000     @SCRATCH
001     @SCRATCH
001     _RETURN_
002     @SCRATCH
003     @SCRATCH
004     @SCRATCH
006     i
007-010 x
011     main.@SCRATCH1
012     @delay_ms1.P1
012     main.@SCRATCH2
013     main.@SCRATCH3
014     main.@SCRATCH4
FB4.6   C1OUT
FB4.7   C2OUT
FBB-FBC CCP_2
FBB     CCP_2_LOW
FBC     CCP_2_HIGH
FBE     CCP_1_LOW
FBE-FBF CCP_1
FBF     CCP_1_HIGH
FE9-FEA @READ_PROGRAM_MEMORY.P1
FE9-FEA @WRITE_PROGRAM_MEMORY.P2
FF6-FF8 @WRITE_PROGRAM_MEMORY.P1
FF6-FF8 @READ_PROGRAM_MEMORY.P2

ROM Allocation:
0004  @delay_ms1
002C  main
002C  @cinit

Project Directory:
    C:\Users\Vitor\Desktop\Tutorial - 16 - RS232 01\

Project Files:
    Code.c
    Code.h
    ..\..\..\..\Program Files (x86)\PICC\devices\18F2550.h

Units:
    C:\Users\Vitor\Desktop\Tutorial - 16 - RS232 01\Code.c (main)

Compiler Settings:
    Processor:      PIC18F2550
    Pointer Size:   16
    ADC Range:      0-1023
    Opt Level:      9
    Short,Int,Long: UNSIGNED: 1,8,16
    Float,Double:   32,32

Output Files:
    Errors:      Code.err
    Ext Symbols: Code.esym
    INHX32:      Code.hex
    Symbols:     Code.sym
    List:        Code.lst
    Debug/COFF:  Code.cof
    Project:     Code.PJT
    Call Tree:   Code.tre
    Statistics:  Code.sta
