000     @SCRATCH
001     @SCRATCH
001     _RETURN_
002     @SCRATCH
003     @SCRATCH
004     @SCRATCH
006     lcd_init.i
006     MAIN.@SCRATCH1
007     lcd_putc.c
007     lcd_init.@SCRATCH1
008     lcd_gotoxy.x
008     @delay_ms1.P1
008     lcd_init.@SCRATCH2
009     lcd_gotoxy.y
00A     lcd_gotoxy.address
00B     lcd_gotoxy.@SCRATCH1
00C     lcd_send_byte.address
00D     lcd_send_byte.n
00E     lcd_send_byte.cont
00F     lcd_read_byte.low
00F     lcd_send_byte.@SCRATCH1
010     lcd_read_byte.high
010     lcd_send_nibble.n
011     lcd_read_byte.@SCRATCH1
F81     lcd
FB4.6   C1OUT
FB4.7   C2OUT
FBB     CCP_2_LOW
FBB-FBC CCP_2
FBC     CCP_2_HIGH
FBE     CCP_1_LOW
FBE-FBF CCP_1
FBF     CCP_1_HIGH
FE9-FEA @READ_PROGRAM_MEMORY.P1
FE9-FEA @WRITE_PROGRAM_MEMORY.P2
FF6-FF8 @READ_PROGRAM_MEMORY.P1
FF6-FF8 @WRITE_PROGRAM_MEMORY.P2

ROM Allocation:
0030  @delay_ms1
0004  LCD_INIT_STRING
0078  lcd_read_byte
0058  lcd_send_nibble
00B8  lcd_send_byte
0106  lcd_init
015E  lcd_gotoxy
0182  lcd_putc
01C6  MAIN
0018  @const95
01C6  @cinit

Project Directory:
    H:\Eletrônica - Programação\PIC\Tutorial - 20 - LCD\

Project Files:
    Code.c
    Code.h
    C:\Program Files (x86)\PICC\devices\18F2550.h
    C:\Program Files (x86)\PICC\drivers\lcd.c

Units:
    H:\Eletrônica - Programação\PIC\Tutorial - 20 - LCD\Code.c (main)

Compiler Settings:
    Processor:      PIC18F2550
    Pointer Size:   16
    ADC Range:      0-1023
    Opt Level:      9
    Short,Int,Long: UNSIGNED: 1,8,16
    Float,Double:   32,32

Output Files:
    Errors:      Code.err
    Ext Symbols: Code.esym
    INHX32:      Code.hex
    Symbols:     Code.sym
    List:        Code.lst
    Debug/COFF:  Code.cof
    Project:     Code.PJT
    Call Tree:   Code.tre
    Statistics:  Code.sta
